<?xml version="1.0" encoding="UTF-8" standalone="no"?>
<!-- Created with Inkscape (http://www.inkscape.org/) -->

<svg width="1in" height="1in" viewBox="0 0 72 72" version="1.1" id="svg1" inkscape:version="1.4-dev (78feff3be0, 2023-08-12, custom)" sodipodi:docname="inch_72.svg" xmlns:inkscape="http://www.inkscape.org/namespaces/inkscape" xmlns:sodipodi="http://sodipodi.sourceforge.net/DTD/sodipodi-0.dtd" xmlns="http://www.w3.org/2000/svg" xmlns:svg="http://www.w3.org/2000/svg">
  <sodipodi:namedview id="namedview1" pagecolor="#ffffff" bordercolor="#000000" borderopacity="0.25" inkscape:showpageshadow="2" inkscape:pageopacity="0.0" inkscape:pagecheckerboard="0" inkscape:deskcolor="#d1d1d1" inkscape:document-units="in" inkscape:zoom="0.94252245" inkscape:cx="48.274712" inkscape:cy="47.744221" inkscape:window-width="2560" inkscape:window-height="1295" inkscape:window-x="0" inkscape:window-y="32" inkscape:window-maximized="1" inkscape:current-layer="layer1">
    <inkscape:page x="0" y="0" width="72" height="72" id="page1" margin="7.2" bleed="0" />
  </sodipodi:namedview>
  <defs id="defs1" />
  <g inkscape:label="Layer 1" inkscape:groupmode="layer" id="layer1" />
</svg>
